<svg width="32" height="33" viewBox="0 0 32 33" fill="none" xmlns="http://www.w3.org/2000/svg">
<path fill-rule="evenodd" clip-rule="evenodd" d="M4 9.16667C4 5.66638 4.03748 4.5 8.66667 4.5C13.2959 4.5 13.3333 5.66638 13.3333 9.16667C13.3333 12.667 13.3481 13.8333 8.66667 13.8333C3.98524 13.8333 4 12.667 4 9.16667Z" fill="currentColor" stroke="currentColor" stroke-width="2.2" stroke-linecap="round" stroke-linejoin="round"/>
<path fill-rule="evenodd" clip-rule="evenodd" d="M18.666 9.16667C18.666 5.66638 18.7035 4.5 23.3327 4.5C27.9619 4.5 27.9993 5.66638 27.9993 9.16667C27.9993 12.667 28.0141 13.8333 23.3327 13.8333C18.6513 13.8333 18.666 12.667 18.666 9.16667Z" fill="currentColor" stroke="currentColor" stroke-width="2.2" stroke-linecap="round" stroke-linejoin="round"/>
<path fill-rule="evenodd" clip-rule="evenodd" d="M4 23.8337C4 20.3334 4.03748 19.167 8.66667 19.167C13.2959 19.167 13.3333 20.3334 13.3333 23.8337C13.3333 27.3339 13.3481 28.5003 8.66667 28.5003C3.98524 28.5003 4 27.3339 4 23.8337Z" fill="currentColor" stroke="currentColor" stroke-width="2.2" stroke-linecap="round" stroke-linejoin="round"/>
<path fill-rule="evenodd" clip-rule="evenodd" d="M18.666 23.8337C18.666 20.3334 18.7035 19.167 23.3327 19.167C27.9619 19.167 27.9993 20.3334 27.9993 23.8337C27.9993 27.3339 28.0141 28.5003 23.3327 28.5003C18.6513 28.5003 18.666 27.3339 18.666 23.8337Z" fill="currentColor" stroke="currentColor" stroke-width="2.2" stroke-linecap="round" stroke-linejoin="round"/>
</svg>
