<svg width="25" height="24" viewBox="0 0 25 24" fill="none" xmlns="http://www.w3.org/2000/svg">
<g clip-path="url(#clip0_2_192)">
<path d="M23.75 12C23.75 18.0751 18.8251 23 12.75 23C6.67487 23 1.75 18.0751 1.75 12C1.75 5.92487 6.67487 1 12.75 1C18.8251 1 23.75 5.92487 23.75 12Z" stroke="currentColor" stroke-width="1.2"/>
<path d="M10.5784 9.82843L16.6997 7.70711L14.5784 13.8284L8.45711 15.9497L10.5784 9.82843Z" stroke="currentColor" stroke-width="1.2"/>
</g>
<defs>
<clipPath id="clip0_2_192">
<rect width="24" height="24" fill="white" transform="translate(0.75)"/>
</clipPath>
</defs>
</svg>
