<svg width="32" height="33" viewBox="0 0 32 33" fill="none" xmlns="http://www.w3.org/2000/svg">
<path d="M23.8516 15.0293C25.7116 14.768 27.1436 13.1733 27.1476 11.2413C27.1476 9.33729 25.7596 7.75863 23.9396 7.45996" stroke="currentColor" stroke-width="2" stroke-linecap="round" stroke-linejoin="round"/>
<path d="M26.3047 19.501C28.106 19.7703 29.3634 20.401 29.3634 21.701C29.3634 22.5956 28.7714 23.177 27.814 23.5423" stroke="currentColor" stroke-width="2" stroke-linecap="round" stroke-linejoin="round"/>
<path fill-rule="evenodd" clip-rule="evenodd" d="M15.8496 20.0518C11.5643 20.0518 7.9043 20.7011 7.9043 23.2944C7.9043 25.8864 11.5416 26.5544 15.8496 26.5544C20.135 26.5544 23.7936 25.9118 23.7936 23.3171C23.7936 20.7224 20.1576 20.0518 15.8496 20.0518Z" stroke="currentColor" stroke-width="2" stroke-linecap="round" stroke-linejoin="round"/>
<path fill-rule="evenodd" clip-rule="evenodd" d="M15.8498 16.351C18.6618 16.351 20.9418 14.0723 20.9418 11.259C20.9418 8.44699 18.6618 6.16699 15.8498 6.16699C13.0378 6.16699 10.7579 8.44699 10.7579 11.259C10.7472 14.0617 13.0099 16.3417 15.8125 16.351H15.8498Z" stroke="currentColor" stroke-width="2" stroke-linecap="round" stroke-linejoin="round"/>
<path d="M7.84678 15.0293C5.98545 14.768 4.55478 13.1733 4.55078 11.2413C4.55078 9.33729 5.93878 7.75863 7.75878 7.45996" stroke="currentColor" stroke-width="2" stroke-linecap="round" stroke-linejoin="round"/>
<path d="M5.39265 19.501C3.59132 19.7703 2.33398 20.401 2.33398 21.701C2.33398 22.5956 2.92598 23.177 3.88332 23.5423" stroke="currentColor" stroke-width="2" stroke-linecap="round" stroke-linejoin="round"/>
</svg>
