<svg width="24" height="24" viewBox="0 0 24 24" fill="none" xmlns="http://www.w3.org/2000/svg">
<path fill-rule="evenodd" clip-rule="evenodd" d="M11.9847 15.3457C8.11707 15.3457 4.81421 15.9305 4.81421 18.2724C4.81421 20.6143 8.09611 21.22 11.9847 21.22C15.8523 21.22 19.1542 20.6343 19.1542 18.2933C19.1542 15.9524 15.8733 15.3457 11.9847 15.3457Z" stroke="currentColor" stroke-width="1.5" stroke-linecap="round" stroke-linejoin="round"/>
<path fill-rule="evenodd" clip-rule="evenodd" d="M11.9846 12.0059C14.5227 12.0059 16.5799 9.94779 16.5799 7.40969C16.5799 4.8716 14.5227 2.81445 11.9846 2.81445C9.44655 2.81445 7.38845 4.8716 7.38845 7.40969C7.37988 9.93922 9.42369 11.9973 11.9523 12.0059H11.9846Z" stroke="currentColor" stroke-width="1.42857" stroke-linecap="round" stroke-linejoin="round"/>
</svg>
