<svg width="38" height="35" viewBox="0 0 38 35" fill="none" xmlns="http://www.w3.org/2000/svg">
<path d="M14 22.5C13.6703 22.5 13.3481 22.5977 13.074 22.7809C12.7999 22.964 12.5863 23.2243 12.4602 23.5289C12.334 23.8334 12.301 24.1685 12.3653 24.4918C12.4296 24.8151 12.5884 25.1121 12.8214 25.3452C13.0545 25.5783 13.3515 25.737 13.6748 25.8013C13.9981 25.8656 14.3332 25.8326 14.6378 25.7065C14.9423 25.5803 15.2026 25.3667 15.3857 25.0926C15.5689 24.8185 15.6666 24.4963 15.6666 24.1667C15.6666 23.7246 15.491 23.3007 15.1785 22.9881C14.8659 22.6756 14.442 22.5 14 22.5ZM2.33329 20.8333C1.89127 20.8333 1.46734 21.0089 1.15478 21.3215C0.842221 21.634 0.666626 22.058 0.666626 22.5V25.8333C0.666626 26.2754 0.842221 26.6993 1.15478 27.0118C1.46734 27.3244 1.89127 27.5 2.33329 27.5C2.77532 27.5 3.19924 27.3244 3.5118 27.0118C3.82436 26.6993 3.99996 26.2754 3.99996 25.8333V22.5C3.99996 22.058 3.82436 21.634 3.5118 21.3215C3.19924 21.0089 2.77532 20.8333 2.33329 20.8333ZM35.6666 20.8333C35.2246 20.8333 34.8007 21.0089 34.4881 21.3215C34.1756 21.634 34 22.058 34 22.5V25.8333C34 26.2754 34.1756 26.6993 34.4881 27.0118C34.8007 27.3244 35.2246 27.5 35.6666 27.5C36.1087 27.5 36.5326 27.3244 36.8451 27.0118C37.1577 26.6993 37.3333 26.2754 37.3333 25.8333V22.5C37.3333 22.058 37.1577 21.634 36.8451 21.3215C36.5326 21.0089 36.1087 20.8333 35.6666 20.8333ZM27.3333 9.16666H20.6666V7.03333C21.1704 6.74248 21.5893 6.32485 21.8817 5.82194C22.1741 5.31904 22.3298 4.74837 22.3333 4.16666C22.3333 3.28261 21.9821 2.43476 21.357 1.80964C20.7319 1.18452 19.884 0.833328 19 0.833328C18.1159 0.833328 17.2681 1.18452 16.6429 1.80964C16.0178 2.43476 15.6666 3.28261 15.6666 4.16666C15.6701 4.74837 15.8258 5.31904 16.1182 5.82194C16.4106 6.32485 16.8295 6.74248 17.3333 7.03333V9.16666H10.6666C9.34054 9.16666 8.06877 9.69345 7.13109 10.6311C6.19341 11.5688 5.66663 12.8406 5.66663 14.1667V29.1667C5.66663 30.4927 6.19341 31.7645 7.13109 32.7022C8.06877 33.6399 9.34054 34.1667 10.6666 34.1667H27.3333C28.6594 34.1667 29.9311 33.6399 30.8688 32.7022C31.8065 31.7645 32.3333 30.4927 32.3333 29.1667V14.1667C32.3333 12.8406 31.8065 11.5688 30.8688 10.6311C29.9311 9.69345 28.6594 9.16666 27.3333 9.16666ZM21.8666 12.5L21.0333 15.8333H16.9666L16.1333 12.5H21.8666ZM29 29.1667C29 29.6087 28.8244 30.0326 28.5118 30.3452C28.1992 30.6577 27.7753 30.8333 27.3333 30.8333H10.6666C10.2246 30.8333 9.80068 30.6577 9.48812 30.3452C9.17556 30.0326 8.99996 29.6087 8.99996 29.1667V14.1667C8.99996 13.7246 9.17556 13.3007 9.48812 12.9882C9.80068 12.6756 10.2246 12.5 10.6666 12.5H12.7L14 17.9C14.0912 18.2698 14.3064 18.5972 14.6096 18.8276C14.9129 19.0581 15.2859 19.1778 15.6666 19.1667H22.3333C22.714 19.1778 23.0871 19.0581 23.3903 18.8276C23.6936 18.5972 23.9087 18.2698 24 17.9L25.3 12.5H27.3333C27.7753 12.5 28.1992 12.6756 28.5118 12.9882C28.8244 13.3007 29 13.7246 29 14.1667V29.1667ZM24 22.5C23.6703 22.5 23.3481 22.5977 23.074 22.7809C22.7999 22.964 22.5863 23.2243 22.4602 23.5289C22.334 23.8334 22.301 24.1685 22.3653 24.4918C22.4296 24.8151 22.5884 25.1121 22.8214 25.3452C23.0545 25.5783 23.3515 25.737 23.6748 25.8013C23.9981 25.8656 24.3332 25.8326 24.6378 25.7065C24.9423 25.5803 25.2026 25.3667 25.3857 25.0926C25.5689 24.8185 25.6666 24.4963 25.6666 24.1667C25.6666 23.7246 25.491 23.3007 25.1785 22.9881C24.8659 22.6756 24.442 22.5 24 22.5Z" fill="currentColor"/>
</svg>
